<svg width="152" height="152" viewBox="0 0 152 152" fill="none" xmlns="http://www.w3.org/2000/svg">
<path d="M141.584 77.9306L139.347 77.827L139.225 80.4584L138.206 80.4111L138.328 77.7797L135.992 77.6715L135.855 80.6318L134.835 80.5846L135.031 76.3743L142.662 76.728L142.466 80.9382L141.447 80.8909L141.584 77.9306Z" fill="#701D1B"/>
<path d="M137.818 82.1285C138.418 82.2216 138.93 82.4271 139.355 82.7448C139.778 83.0697 140.083 83.4651 140.27 83.931C140.463 84.4052 140.519 84.9027 140.438 85.4233C140.366 85.8933 140.208 86.2872 139.966 86.6051C139.73 86.9313 139.459 87.1779 139.152 87.345L140.019 87.4797L139.826 88.727L133.849 87.7992L134.043 86.5519L134.932 86.69C134.683 86.4365 134.492 86.1144 134.361 85.7237C134.229 85.333 134.199 84.9062 134.27 84.4435C134.35 83.9301 134.553 83.4803 134.88 83.0941C135.214 82.709 135.635 82.4264 136.144 82.2463C136.66 82.0746 137.218 82.0353 137.818 82.1285ZM137.037 87.0166C137.449 87.0806 137.82 87.0494 138.151 86.923C138.48 86.8039 138.746 86.6193 138.948 86.3692C139.149 86.1191 139.275 85.835 139.324 85.5169C139.374 85.1987 139.34 84.8899 139.224 84.5904C139.115 84.2921 138.922 84.0326 138.645 83.8119C138.374 83.5996 138.033 83.4614 137.621 83.3974C137.209 83.3335 136.834 83.3605 136.497 83.4785C136.16 83.6038 135.886 83.7909 135.677 84.0398C135.474 84.2971 135.349 84.5812 135.3 84.8922C135.251 85.2103 135.285 85.5191 135.401 85.8186C135.517 86.118 135.715 86.3745 135.992 86.5879C136.276 86.8097 136.624 86.9526 137.037 87.0166Z" fill="#701D1B"/>
<path d="M138.228 91.5273C138.482 91.7795 138.654 92.0715 138.744 92.4034C138.84 92.7443 138.837 93.1169 138.735 93.5215L137.479 93.2065L137.557 92.8978C137.676 92.4222 137.646 92.03 137.467 91.7211C137.286 91.4193 136.898 91.1936 136.301 91.0442L133.214 90.2701L133.518 89.0564L139.384 90.5271L139.08 91.7408L138.228 91.5273Z" fill="#701D1B"/>
<path d="M137.383 97.6685C137.225 98.1168 136.99 98.4839 136.679 98.7698C136.366 99.0626 135.991 99.2443 135.555 99.3149C135.118 99.3856 134.641 99.3293 134.124 99.1462L130.761 97.956L131.175 96.7868L134.362 97.9148C134.872 98.0954 135.307 98.1058 135.667 97.9458C136.033 97.7882 136.294 97.4887 136.45 97.0472C136.607 96.6058 136.593 96.2051 136.41 95.8454C136.231 95.4949 135.887 95.2294 135.376 95.0487L132.19 93.9207L132.607 92.7412L138.308 94.7591L137.891 95.9386L137.239 95.7079C137.405 95.984 137.501 96.2936 137.527 96.6366C137.551 96.9865 137.503 97.3305 137.383 97.6685Z" fill="#701D1B"/>
<path d="M130.373 102.897C130.572 103.804 130.746 104.527 130.895 105.066C131.047 105.614 131.245 106.109 131.489 106.549C131.733 106.989 132.042 107.31 132.415 107.513C132.801 107.722 133.154 107.792 133.474 107.724C133.79 107.663 134.055 107.436 134.268 107.043C134.473 106.664 134.511 106.302 134.382 105.957C134.256 105.622 133.993 105.338 133.595 105.106L134.17 104.044C134.893 104.461 135.334 104.983 135.494 105.611C135.656 106.248 135.561 106.891 135.209 107.541C134.829 108.242 134.339 108.685 133.741 108.868C133.138 109.057 132.516 108.978 131.872 108.629C131.409 108.378 131.027 108.017 130.725 107.545C130.426 107.083 130.195 106.596 130.031 106.083C129.871 105.58 129.705 104.958 129.533 104.215L129.383 103.572L127.725 106.631L126.808 106.134L129.35 101.444L130.151 101.878L130.373 102.897Z" fill="#701D1B"/>
<path d="M125.6 107.618C125.723 107.427 125.89 107.309 126.102 107.262C126.315 107.216 126.516 107.254 126.707 107.376C126.898 107.499 127.017 107.666 127.063 107.878C127.109 108.091 127.071 108.292 126.949 108.483C126.83 108.668 126.665 108.784 126.453 108.83C126.24 108.876 126.039 108.838 125.848 108.716C125.657 108.593 125.538 108.426 125.492 108.214C125.446 108.001 125.482 107.803 125.6 107.618Z" fill="#701D1B"/>
<path d="M127.085 117.518L129.323 114.601L127.59 113.271C127.659 113.518 127.658 113.802 127.585 114.125C127.509 114.454 127.366 114.754 127.156 115.027C126.782 115.515 126.375 115.829 125.934 115.971C125.489 116.118 125.058 116.133 124.641 116.016C124.219 115.905 123.831 115.713 123.477 115.441C123.047 115.112 122.729 114.733 122.521 114.307C122.315 113.89 122.243 113.443 122.305 112.965C122.363 112.493 122.575 112.019 122.94 111.543C123.425 110.91 123.972 110.523 124.579 110.38C125.187 110.237 125.778 110.326 126.352 110.647L125.611 111.614C125.289 111.469 124.962 111.444 124.63 111.54C124.304 111.64 124.014 111.856 123.76 112.187C123.444 112.599 123.333 113.002 123.427 113.397C123.516 113.797 123.767 114.156 124.179 114.472C124.597 114.793 124.996 114.933 125.377 114.893C125.764 114.858 126.113 114.637 126.425 114.231C126.643 113.946 126.756 113.65 126.762 113.341C126.77 113.043 126.685 112.756 126.508 112.482L127.229 111.542L130.896 114.354L127.956 118.186L127.085 117.518Z" fill="#701D1B"/>
<path d="M124.937 118.851C125.316 119.227 125.503 119.63 125.5 120.059C125.496 120.499 125.322 120.893 124.976 121.241C124.631 121.589 124.241 121.764 123.806 121.765C123.372 121.777 122.965 121.595 122.586 121.219C122.207 120.842 122.019 120.434 122.023 119.994C122.021 119.56 122.193 119.169 122.538 118.821C122.884 118.473 123.276 118.295 123.716 118.289C124.151 118.287 124.558 118.474 124.937 118.851ZM121.333 124.708L118.998 116.218L119.864 115.346L122.2 123.836L121.333 124.708ZM124.439 120.707C124.764 120.38 124.7 119.993 124.248 119.544C123.791 119.09 123.401 119.027 123.076 119.354C122.921 119.51 122.857 119.684 122.884 119.875C122.91 120.077 123.04 120.293 123.274 120.525C123.726 120.974 124.114 121.035 124.439 120.707ZM118.604 118.858C118.983 119.235 119.17 119.637 119.167 120.067C119.163 120.507 118.989 120.901 118.643 121.249C118.303 121.591 117.916 121.763 117.481 121.765C117.046 121.777 116.64 121.595 116.26 121.218C115.881 120.842 115.694 120.434 115.697 119.994C115.696 119.56 115.865 119.171 116.205 118.828C116.551 118.48 116.943 118.303 117.383 118.296C117.818 118.295 118.224 118.482 118.604 118.858ZM118.114 120.707C118.438 120.38 118.375 119.992 117.923 119.544C117.471 119.095 117.083 119.035 116.758 119.362C116.433 119.689 116.497 120.077 116.949 120.525C117.4 120.974 117.789 121.034 118.114 120.707Z" fill="#701D1B"/>
<path d="M110.243 123.71C110.708 123.379 111.203 123.185 111.727 123.126C112.255 123.074 112.762 123.162 113.248 123.391C113.739 123.626 114.164 123.997 114.524 124.504C114.88 125.005 115.086 125.528 115.141 126.073C115.196 126.617 115.106 127.129 114.873 127.61C114.64 128.09 114.287 128.497 113.816 128.832C113.345 129.167 112.844 129.366 112.314 129.428C111.784 129.491 111.271 129.407 110.775 129.176C110.279 128.945 109.852 128.579 109.496 128.078C109.14 127.577 108.938 127.052 108.889 126.503C108.84 125.955 108.936 125.433 109.177 124.939C109.416 124.454 109.772 124.045 110.243 123.71ZM110.872 124.595C110.61 124.782 110.41 125.018 110.272 125.305C110.129 125.595 110.074 125.917 110.109 126.269C110.144 126.621 110.289 126.976 110.543 127.334C110.797 127.692 111.08 127.944 111.391 128.091C111.706 128.244 112.022 128.303 112.337 128.267C112.653 128.231 112.942 128.12 113.205 127.934C113.467 127.747 113.667 127.511 113.805 127.224C113.936 126.942 113.979 126.629 113.932 126.286C113.889 125.948 113.741 125.6 113.486 125.242C113.109 124.711 112.682 124.395 112.206 124.294C111.728 124.202 111.284 124.303 110.872 124.595Z" fill="#701D1B"/>
<path d="M106.91 133.133C106.492 133.36 106.071 133.475 105.649 133.479C105.221 133.487 104.821 133.371 104.449 133.131C104.078 132.891 103.761 132.53 103.5 132.047L101.8 128.911L102.89 128.32L104.501 131.292C104.759 131.768 105.075 132.067 105.449 132.189C105.827 132.318 106.222 132.27 106.633 132.047C107.045 131.824 107.303 131.517 107.408 131.128C107.51 130.748 107.432 130.32 107.174 129.844L105.563 126.872L106.663 126.275L109.545 131.592L108.445 132.188L108.116 131.58C108.054 131.897 107.918 132.191 107.708 132.463C107.491 132.739 107.225 132.962 106.91 133.133Z" fill="#701D1B"/>
<path d="M94.9832 138.063L95.514 128.444L96.735 128.012L96.5576 131.195L100.788 136.008L99.4737 136.473L96.3318 132.695L96.2041 137.63L94.9832 138.063Z" fill="#701D1B"/>
<path d="M89.511 133.099C90.0671 132.971 90.5986 132.979 91.1053 133.125C91.6137 133.279 92.0489 133.554 92.4108 133.951C92.7743 134.355 93.026 134.86 93.1657 135.466C93.3038 136.065 93.2944 136.627 93.1375 137.151C92.9805 137.675 92.7027 138.115 92.3039 138.47C91.9051 138.825 91.4241 139.067 90.8608 139.197C90.2975 139.327 89.7589 139.319 89.245 139.175C88.7312 139.031 88.2889 138.757 87.9182 138.355C87.5475 137.952 87.2931 137.451 87.155 136.852C87.0169 136.253 87.0299 135.691 87.194 135.165C87.3581 134.639 87.6458 134.193 88.0572 133.828C88.4631 133.472 88.9477 133.229 89.511 133.099ZM89.7551 134.158C89.4414 134.23 89.1663 134.372 88.9299 134.584C88.6864 134.798 88.5136 135.075 88.4115 135.414C88.3094 135.753 88.3077 136.136 88.4064 136.564C88.505 136.992 88.67 137.333 88.9014 137.587C89.1345 137.849 89.4037 138.023 89.7092 138.111C90.0147 138.198 90.3243 138.205 90.638 138.133C90.9517 138.061 91.2268 137.918 91.4632 137.706C91.6925 137.496 91.8511 137.222 91.9389 136.887C92.0283 136.558 92.0237 136.18 91.9251 135.752C91.7788 135.118 91.5049 134.663 91.1035 134.387C90.6966 134.121 90.2471 134.044 89.7551 134.158Z" fill="#701D1B"/>
<path d="M80.4446 140.696L79.793 134.683L81.037 134.548L81.1139 135.258C81.2835 134.989 81.5204 134.765 81.8248 134.584C82.1226 134.412 82.4497 134.307 82.8062 134.268C83.2791 134.217 83.7153 134.269 84.1148 134.425C84.5071 134.581 84.8333 134.84 85.0933 135.202C85.346 135.564 85.502 136.019 85.5611 136.564L85.9442 140.1L84.7112 140.233L84.3481 136.883C84.2898 136.345 84.1103 135.945 83.8096 135.683C83.5097 135.429 83.127 135.326 82.6614 135.377C82.1958 135.427 81.8438 135.609 81.6054 135.922C81.3605 136.243 81.2672 136.672 81.3255 137.211L81.6885 140.561L80.4446 140.696Z" fill="#701D1B"/>
<path d="M76.9768 139.897C76.7986 140.208 76.5608 140.449 76.2635 140.622C75.9589 140.802 75.5981 140.896 75.1811 140.902L75.1611 139.607L75.4793 139.602C75.9695 139.595 76.3407 139.465 76.593 139.212C76.8379 138.959 76.9556 138.526 76.9461 137.911L76.897 134.728L78.1481 134.709L78.2414 140.756L76.9903 140.775L76.9768 139.897Z" fill="#701D1B"/>
<path d="M68.5455 139.334L69.6598 139.442L70.1436 134.438L71.4 134.56L70.9162 139.563L71.6263 139.632L71.528 140.648L70.8179 140.579L70.7767 141.005C70.7098 141.697 70.4791 142.182 70.0847 142.46C69.6823 142.745 69.0877 142.849 68.3011 142.773L68.4015 141.735C68.7802 141.772 69.0531 141.724 69.2202 141.594C69.3865 141.47 69.4866 141.233 69.5204 140.884L69.5616 140.458L68.4472 140.35L68.5455 139.334Z" fill="#701D1B"/>
<path d="M66.059 140.822C66.2833 140.856 66.4599 140.96 66.5888 141.135C66.7178 141.31 66.7653 141.51 66.7313 141.734C66.6974 141.958 66.593 142.135 66.418 142.264C66.2431 142.393 66.0435 142.44 65.8192 142.406C65.6022 142.373 65.4292 142.27 65.3003 142.095C65.1713 141.92 65.1238 141.72 65.1578 141.496C65.1917 141.272 65.2961 141.095 65.471 140.966C65.646 140.837 65.842 140.789 66.059 140.822ZM65.5712 139.938L66.476 133.958L67.7132 134.145L66.8083 140.125L65.5712 139.938Z" fill="#701D1B"/>
<path d="M62.967 138.558C62.7256 138.822 62.441 139.006 62.1132 139.11C61.7767 139.22 61.4042 139.232 60.9957 139.148L61.2578 137.88L61.5695 137.944C62.0496 138.043 62.4403 137.997 62.7414 137.805C63.0354 137.612 63.2446 137.214 63.3689 136.612L64.013 133.495L65.2384 133.748L64.0147 139.671L62.7893 139.418L62.967 138.558Z" fill="#701D1B"/>
<path d="M59.4899 132.258C59.9465 132.392 60.3339 132.592 60.6521 132.86C60.9613 133.133 61.1803 133.441 61.3091 133.783C61.4359 134.133 61.4552 134.485 61.3668 134.84L60.1234 134.478C60.174 134.226 60.1185 133.985 59.9569 133.755C59.7862 133.53 59.5393 133.37 59.2161 133.276C58.8789 133.178 58.6006 133.165 58.3811 133.239C58.1525 133.317 58.0085 133.458 57.9491 133.661C57.8857 133.879 57.944 134.072 58.124 134.238C58.297 134.403 58.5899 134.614 59.0026 134.872C59.4034 135.118 59.7244 135.337 59.9656 135.53C60.2068 135.722 60.3955 135.964 60.5317 136.255C60.6608 136.544 60.6701 136.878 60.5595 137.258C60.4694 137.567 60.2962 137.821 60.0399 138.021C59.7815 138.227 59.4622 138.355 59.082 138.405C58.6948 138.452 58.2799 138.411 57.8373 138.282C57.1769 138.089 56.6957 137.766 56.3935 137.312C56.0823 136.863 55.9966 136.347 56.1364 135.763L57.3376 136.113C57.283 136.379 57.3279 136.617 57.4726 136.827C57.6172 137.036 57.8511 137.188 58.1743 137.283C58.4904 137.375 58.7501 137.386 58.9535 137.315C59.157 137.245 59.2873 137.112 59.3446 136.915C59.3897 136.76 59.3714 136.614 59.2897 136.476C59.208 136.338 59.0956 136.214 58.9524 136.103C58.8072 136 58.5899 135.857 58.3004 135.673C57.9116 135.438 57.6012 135.222 57.369 135.024C57.1278 134.832 56.9416 134.595 56.8104 134.313C56.6792 134.031 56.6644 133.702 56.7659 133.328C56.8621 132.998 57.0394 132.729 57.2978 132.523C57.5562 132.316 57.8755 132.188 58.2557 132.139C58.6289 132.088 59.0403 132.127 59.4899 132.258Z" fill="#701D1B"/>
<path d="M52.874 135.415L54.0735 132.289C54.1548 132.077 54.1659 131.905 54.107 131.773C54.0386 131.645 53.8849 131.535 53.6458 131.443L52.9285 131.168L53.3021 130.194L54.2243 130.548C54.7504 130.75 55.1062 131.028 55.2919 131.381C55.4776 131.735 55.4643 132.188 55.2519 132.742L54.0524 135.867L54.7184 136.123L54.3527 137.076L53.6866 136.82L53.1478 138.224L51.9694 137.771L52.5082 136.368L51.1351 135.841L51.5008 134.888L52.874 135.415Z" fill="#701D1B"/>
<path d="M44.6912 128.293C44.8656 127.971 45.1099 127.712 45.4241 127.516C45.732 127.317 46.0926 127.205 46.506 127.179C46.9129 127.15 47.3359 127.229 47.775 127.417L48.1987 126.636L48.8259 126.976L48.4022 127.757C48.9755 128.143 49.3616 128.598 49.5604 129.122C49.7591 129.646 49.7155 130.171 49.4296 130.699L48.2524 130.061C48.3691 129.799 48.402 129.547 48.3511 129.303C48.2968 129.065 48.1499 128.852 47.9106 128.664L46.7599 130.787C47.1316 131.13 47.4229 131.43 47.6338 131.686C47.8413 131.948 47.9752 132.253 48.0357 132.602C48.0898 132.948 48.0017 133.333 47.7716 133.758C47.4822 134.292 47.0567 134.631 46.4953 134.776C45.9304 134.928 45.33 134.869 44.6939 134.599L44.2702 135.38L43.643 135.041L44.0666 134.259C43.5284 133.901 43.1725 133.475 42.999 132.981C42.8155 132.49 42.8459 131.966 43.0903 131.408L44.2675 132.046C44.1787 132.256 44.1601 132.474 44.2115 132.702C44.2594 132.936 44.3802 133.143 44.574 133.323L45.7038 131.239C45.3285 130.902 45.0372 130.603 44.8298 130.34C44.6189 130.085 44.4864 129.784 44.4324 129.438C44.3748 129.099 44.4611 128.717 44.6912 128.293ZM46.6208 133.209C46.7638 132.945 46.7982 132.697 46.724 132.466C46.6434 132.231 46.4827 131.99 46.2421 131.743L45.1855 133.692C45.4796 133.81 45.7556 133.83 46.0135 133.754C46.265 133.673 46.4674 133.492 46.6208 133.209ZM47.2833 128.324C46.9759 128.216 46.6929 128.208 46.4345 128.301C46.1725 128.401 45.9718 128.579 45.8323 128.836C45.6928 129.094 45.6652 129.337 45.7493 129.565C45.8235 129.797 45.9809 130.036 46.2216 130.283L47.2833 128.324Z" fill="#701D1B"/>
<path d="M43.3066 126.842C42.3836 126.943 41.6464 127.039 41.0949 127.13C40.5333 127.223 40.0206 127.368 39.5569 127.564C39.0932 127.759 38.7409 128.032 38.5001 128.382C38.251 128.743 38.1433 129.087 38.1769 129.412C38.2044 129.733 38.402 130.02 38.7695 130.273C39.125 130.518 39.4811 130.595 39.8377 130.503C40.1841 130.413 40.4941 130.182 40.7677 129.811L41.7619 130.496C41.2706 131.17 40.7045 131.553 40.0638 131.645C39.4128 131.738 38.7831 131.576 38.1745 131.156C37.5177 130.704 37.1301 130.17 37.0116 129.555C36.8872 128.936 37.0325 128.326 37.4477 127.723C37.7466 127.289 38.1466 126.947 38.6477 126.697C39.1386 126.449 39.6477 126.271 40.1751 126.163C40.6922 126.058 41.329 125.959 42.0855 125.867L42.7413 125.786L39.8761 123.811L40.4677 122.953L44.8603 125.979L44.3435 126.73L43.3066 126.842Z" fill="#701D1B"/>
<path d="M36.9534 125.294C36.1222 126.249 35.3135 126.855 34.5274 127.111C33.7309 127.369 32.9381 127.154 32.1489 126.467C31.3597 125.78 31.0405 125.027 31.1913 124.207C31.3317 123.388 31.8176 122.501 32.6488 121.547C33.4896 120.581 34.3107 119.967 35.1119 119.704C35.9029 119.442 36.693 119.654 37.4822 120.341C38.2713 121.028 38.5933 121.784 38.448 122.608C38.2925 123.433 37.7943 124.329 36.9534 125.294ZM33.5759 122.354C33.1868 122.801 32.888 123.205 32.6796 123.567C32.4658 123.924 32.363 124.276 32.3715 124.623C32.3751 124.976 32.5508 125.303 32.8984 125.606C33.2461 125.909 33.5947 126.038 33.9443 125.993C34.2891 125.953 34.6263 125.805 34.9561 125.549C35.2804 125.288 35.6371 124.934 36.0263 124.487C36.4299 124.024 36.741 123.611 36.9597 123.248C37.1784 122.885 37.2835 122.531 37.2751 122.184C37.2611 121.832 37.0803 121.505 36.7326 121.202C36.3849 120.899 36.0387 120.768 35.6939 120.807C35.3437 120.842 35.004 120.992 34.6749 121.259C34.3459 121.525 33.9795 121.89 33.5759 122.354Z" fill="#701D1B"/>
<path d="M32.1739 117.309L35.2722 116.151L35.8382 116.733L33.1222 118.285L32.1739 117.309Z" fill="#701D1B"/>
<path d="M29.4591 118.306C28.4835 119.113 27.587 119.579 26.7695 119.704C25.9418 119.828 25.1945 119.487 24.5278 118.681C23.861 117.874 23.6687 117.079 23.951 116.295C24.2229 115.51 24.8466 114.714 25.8222 113.908C26.8091 113.092 27.7193 112.619 28.5527 112.49C29.3758 112.361 30.1207 112.699 30.7874 113.505C31.4542 114.312 31.6488 115.11 31.3712 115.899C31.0834 116.688 30.446 117.49 29.4591 118.306ZM26.6056 114.855C26.1488 115.233 25.7881 115.583 25.5236 115.906C25.2544 116.224 25.0958 116.554 25.0476 116.898C24.9938 117.246 25.1138 117.598 25.4075 117.953C25.7012 118.309 26.0242 118.493 26.3764 118.505C26.723 118.523 27.0799 118.432 27.447 118.233C27.8094 118.028 28.219 117.737 28.6758 117.359C29.1495 116.967 29.5237 116.61 29.7986 116.288C30.0734 115.966 30.2349 115.633 30.283 115.29C30.3266 114.94 30.2014 114.588 29.9077 114.233C29.6139 113.877 29.2938 113.691 28.9472 113.674C28.596 113.651 28.2363 113.744 27.8682 113.954C27.5002 114.163 27.0793 114.463 26.6056 114.855Z" fill="#701D1B"/>
<path d="M24.7759 112.519C23.7129 113.206 22.7682 113.564 21.9417 113.593C21.1051 113.62 20.4028 113.194 19.8346 112.316C19.2664 111.437 19.1682 110.625 19.5399 109.879C19.9015 109.131 20.6138 108.414 21.6768 107.726C22.7521 107.031 23.7111 106.668 24.5539 106.637C25.3865 106.604 26.0869 107.027 26.6551 107.905C27.2232 108.784 27.3234 109.599 26.9557 110.351C26.5778 111.101 25.8512 111.824 24.7759 112.519ZM22.3443 108.758C21.8466 109.08 21.4476 109.386 21.1472 109.676C20.8428 109.96 20.6467 110.27 20.5588 110.606C20.4647 110.945 20.5428 111.309 20.7931 111.696C21.0434 112.083 21.3428 112.303 21.6911 112.357C22.0333 112.415 22.3983 112.366 22.7861 112.211C23.17 112.05 23.6107 111.808 24.1084 111.487C24.6246 111.153 25.0379 110.842 25.3484 110.554C25.6589 110.266 25.8581 109.954 25.9461 109.619C26.03 109.277 25.9468 108.912 25.6965 108.525C25.4462 108.138 25.1499 107.916 24.8077 107.858C24.4616 107.795 24.0935 107.845 23.7035 108.01C23.3135 108.175 22.8605 108.425 22.3443 108.758Z" fill="#701D1B"/>
<path d="M20.7402 106.112C19.6016 106.665 18.6204 106.906 17.7965 106.834C16.9628 106.76 16.3174 106.251 15.8601 105.31C15.4028 104.369 15.404 103.551 15.8635 102.856C16.3132 102.157 17.1074 101.532 18.246 100.978C19.3978 100.419 20.3938 100.175 21.234 100.247C22.0645 100.315 22.7084 100.82 23.1656 101.761C23.6229 102.702 23.6234 103.523 23.1671 104.225C22.7009 104.923 21.892 105.552 20.7402 106.112ZM18.7832 102.084C18.2501 102.343 17.8169 102.598 17.4835 102.85C17.1469 103.095 16.9146 103.378 16.7866 103.701C16.652 104.027 16.6854 104.397 16.8868 104.811C17.0883 105.226 17.3586 105.481 17.6979 105.577C18.0306 105.675 18.3988 105.671 18.8025 105.565C19.2031 105.451 19.6699 105.265 20.203 105.006C20.7559 104.738 21.2039 104.479 21.5471 104.231C21.8902 103.983 22.1258 103.698 22.2539 103.375C22.3787 103.046 22.3404 102.674 22.1389 102.26C21.9375 101.845 21.6704 101.588 21.3377 101.49C21.0018 101.384 20.6303 101.39 20.2232 101.507C19.8161 101.623 19.3361 101.815 18.7832 102.084Z" fill="#701D1B"/>
<path d="M21.3012 97.2767C21.384 97.4878 21.382 97.693 21.2951 97.8922C21.2082 98.0914 21.0592 98.2324 20.848 98.3152C20.6368 98.3981 20.4317 98.3961 20.2325 98.3092C20.0333 98.2223 19.8923 98.0732 19.8094 97.8621C19.7293 97.6577 19.7326 97.456 19.8195 97.2568C19.9064 97.0576 20.0555 96.9166 20.2666 96.8337C20.4778 96.7509 20.6829 96.7529 20.8821 96.8398C21.0813 96.9267 21.221 97.0723 21.3012 97.2767Z" fill="#701D1B"/>
<path d="M12.9765 93.4841L15.142 92.9149L14.4724 90.3672L15.4596 90.1077L16.1293 92.6554L18.3903 92.0611L17.6369 89.1949L18.6241 88.9354L19.6956 93.0117L12.3074 94.9538L11.2359 90.8775L12.2231 90.618L12.9765 93.4841Z" fill="#701D1B"/>
<path d="M15.3424 88.4636C14.7419 88.5544 14.1915 88.5119 13.6912 88.336C13.1899 88.1528 12.7803 87.867 12.4625 87.4784C12.1363 87.0838 11.9338 86.626 11.855 86.1051C11.7839 85.6348 11.816 85.2118 11.9516 84.836C12.0788 84.4542 12.264 84.1375 12.5072 83.8861L11.639 84.0175L11.4502 82.7695L17.4298 81.8646L17.6187 83.1126L16.7288 83.2473C17.0427 83.4144 17.3211 83.6646 17.5639 83.9979C17.8068 84.3311 17.9632 84.7293 18.0333 85.1923C18.111 85.706 18.0519 86.196 17.8561 86.6623C17.653 87.1296 17.3355 87.5255 16.9035 87.8499C16.4632 88.1681 15.9429 88.3727 15.3424 88.4636ZM14.6234 83.5659C14.211 83.6283 13.866 83.7693 13.5884 83.9889C13.3098 84.2013 13.1116 84.457 12.9941 84.756C12.8765 85.055 12.8418 85.3637 12.89 85.682C12.9382 86.0004 13.0626 86.2849 13.2634 86.5358C13.4569 86.7877 13.7188 86.9775 14.0489 87.1052C14.3707 87.2267 14.7378 87.2562 15.1502 87.1938C15.5626 87.1314 15.9118 86.9935 16.1977 86.78C16.4825 86.5593 16.6873 86.2989 16.8121 85.9988C16.9286 85.6925 16.9633 85.3839 16.9162 85.0727C16.868 84.7544 16.7436 84.4698 16.5428 84.219C16.342 83.9681 16.0771 83.7825 15.7481 83.6621C15.4107 83.5355 15.0358 83.5035 14.6234 83.5659Z" fill="#701D1B"/>
<path d="M12.1308 79.5618C11.8135 79.3969 11.5621 79.1696 11.3767 78.8799C11.1836 78.5832 11.075 78.2267 11.0509 77.8103L12.3439 77.7354L12.3623 78.0531C12.3906 78.5426 12.5364 78.9079 12.7996 79.1492C13.0623 79.3832 13.5005 79.4824 14.1142 79.4469L17.2918 79.2627L17.3642 80.5119L11.3266 80.8617L11.2542 79.6126L12.1308 79.5618Z" fill="#701D1B"/>
<path d="M11.0933 73.4178C11.1098 72.9425 11.2233 72.5218 11.4337 72.1557C11.6443 71.7823 11.9471 71.4963 12.3421 71.2977C12.737 71.0991 13.2088 71.0093 13.7572 71.0283L17.3222 71.1522L17.2792 72.3918L13.9006 72.2744C13.3595 72.2556 12.9416 72.3765 12.647 72.6371C12.3451 72.8976 12.186 73.2618 12.1697 73.7298C12.1535 74.1978 12.2868 74.5759 12.5696 74.8639C12.8454 75.1444 13.2539 75.294 13.795 75.3128L17.1736 75.4302L17.1301 76.6807L11.0861 76.4707L11.1295 75.2202L11.8206 75.2442C11.579 75.0308 11.3943 74.7645 11.2663 74.4452C11.1385 74.1186 11.0808 73.7762 11.0933 73.4178Z" fill="#701D1B"/>
<path d="M11.8345 66.1035C11.175 65.9304 10.7039 65.574 10.4213 65.0344C10.1401 64.4877 10.0708 63.848 10.2135 63.1154C10.3114 62.6126 10.4857 62.1956 10.7366 61.8642C10.9875 61.5329 11.2855 61.3039 11.6307 61.1773C11.9759 61.0507 12.3425 61.0251 12.7303 61.1006C13.1756 61.1873 13.5332 61.38 13.8031 61.6785C14.073 61.9771 14.2296 62.302 14.273 62.6534L14.3161 62.6618C14.5279 62.2632 14.8293 61.979 15.2202 61.8091C15.6039 61.6378 16.0615 61.6039 16.593 61.7073C17.0167 61.7898 17.3749 61.9602 17.6676 62.2185C17.9602 62.4767 18.1664 62.8151 18.2862 63.2335C18.3989 63.6505 18.4034 64.1248 18.3 64.6563C18.1489 65.432 17.827 66.0328 17.334 66.4586C16.8353 66.8759 16.209 67.0298 15.455 66.9202L15.6858 65.7351C16.072 65.7805 16.4131 65.6941 16.7091 65.4759C16.9978 65.2563 17.1863 64.9203 17.2744 64.4678C17.3597 64.0296 17.3069 63.669 17.116 63.3858C16.918 63.1013 16.6286 62.9219 16.2479 62.8478C15.7452 62.7499 15.3582 62.8423 15.087 63.125C14.81 63.399 14.6071 63.8665 14.4785 64.5272L14.4239 64.8074L13.4112 64.6102L13.4679 64.3193C13.5739 63.7361 13.563 63.2755 13.435 62.9375C13.3084 62.5923 13.044 62.3805 12.6417 62.3022C12.297 62.2351 12.0024 62.2933 11.7579 62.4768C11.5063 62.6589 11.3406 62.9546 11.2609 63.364C11.1826 63.7663 11.2259 64.099 11.3908 64.3622C11.5486 64.624 11.7741 64.8058 12.0674 64.9076L11.8345 66.1035Z" fill="#701D1B"/>
<path d="M19.3514 60.2644C19.2912 60.4831 19.1667 60.6461 18.9778 60.7535C18.7889 60.8609 18.585 60.8846 18.3663 60.8244C18.1476 60.7642 17.9846 60.6397 17.8772 60.4508C17.7698 60.2619 17.7461 60.0581 17.8063 59.8393C17.8645 59.6277 17.9881 59.4682 18.177 59.3608C18.3659 59.2533 18.5697 59.2297 18.7884 59.2899C19.0071 59.35 19.1702 59.4746 19.2776 59.6635C19.385 59.8524 19.4096 60.0527 19.3514 60.2644Z" fill="#701D1B"/>
<path d="M14.979 51.2501L13.7132 54.7023L15.7639 55.4542C15.6244 55.2394 15.5411 54.9673 15.5138 54.6377C15.4891 54.3013 15.5359 53.9717 15.6543 53.6488C15.8659 53.0717 16.1609 52.6499 16.5392 52.3834C16.92 52.1099 17.3271 51.9669 17.7603 51.9543C18.1961 51.9349 18.6235 52.002 19.0426 52.1557C19.551 52.3421 19.9679 52.6079 20.2933 52.9533C20.6143 53.2892 20.8164 53.6946 20.8996 54.1693C20.9852 54.6371 20.9247 55.1527 20.7182 55.7161C20.4436 56.4649 20.0377 56.998 19.5004 57.3154C18.9632 57.6328 18.3725 57.724 17.7283 57.5891L18.1477 56.4453C18.4983 56.4881 18.8177 56.4142 19.1058 56.2237C19.387 56.0307 19.5994 55.7384 19.743 55.3468C19.9218 54.859 19.9076 54.4407 19.7004 54.092C19.4957 53.7363 19.1494 53.4691 18.6617 53.2902C18.167 53.1089 17.7438 53.094 17.3921 53.2456C17.0335 53.3946 16.766 53.7096 16.5897 54.1905C16.4662 54.5271 16.4476 54.8437 16.5337 55.1403C16.6154 55.4275 16.7817 55.6755 17.0324 55.8843L16.6243 56.9973L12.2859 55.4064L13.9485 50.8723L14.979 51.2501Z" fill="#701D1B"/>
<path d="M16.6359 49.3041C16.1626 49.0565 15.8642 48.727 15.7408 48.3157C15.6143 47.8944 15.6647 47.4666 15.8919 47.0322C16.1192 46.5978 16.4402 46.3156 16.8549 46.1857C17.2666 46.046 17.7091 46.0999 18.1824 46.3474C18.6557 46.595 18.9556 46.9294 19.0821 47.3507C19.212 47.7654 19.1633 48.19 18.9361 48.6244C18.7089 49.0589 18.3862 49.3443 17.9681 49.4806C17.5533 49.6105 17.1092 49.5517 16.6359 49.3041ZM18.3483 42.6439L23.0877 50.0651L22.5179 51.1544L17.7785 43.7332L18.3483 42.6439ZM16.563 47.3832C16.3494 47.7917 16.5246 48.1434 17.0887 48.4385C17.6593 48.7369 18.0514 48.6819 18.265 48.2734C18.3668 48.0789 18.3767 47.8942 18.2948 47.7192C18.2098 47.5344 18.0214 47.3656 17.7297 47.213C17.1656 46.918 16.7767 46.9747 16.563 47.3832ZM22.6842 47.4263C22.2109 47.1787 21.9126 46.8493 21.7892 46.4379C21.6627 46.0166 21.713 45.5888 21.9403 45.1544C22.1641 44.7265 22.4834 44.4476 22.8981 44.3177C23.3098 44.1779 23.7523 44.2318 24.2256 44.4794C24.699 44.727 24.9989 45.0614 25.1254 45.4826C25.2552 45.8974 25.2083 46.3187 24.9844 46.7467C24.7572 47.1811 24.4345 47.4665 24.0164 47.6028C23.6016 47.7327 23.1576 47.6739 22.6842 47.4263ZM22.6062 45.5151C22.3926 45.9236 22.5678 46.2754 23.1319 46.5704C23.696 46.8655 24.0849 46.8088 24.2985 46.4003C24.5122 45.9918 24.337 45.64 23.7729 45.345C23.2088 45.0499 22.8199 45.1067 22.6062 45.5151Z" fill="#701D1B"/>
<path d="M29.2013 40.3533C28.8538 40.8061 28.4382 41.1375 27.9544 41.3473C27.4648 41.5527 26.9541 41.6174 26.4222 41.5413C25.8845 41.4608 25.3689 41.2312 24.8754 40.8526C24.3878 40.4785 24.0377 40.0392 23.8251 39.5349C23.6126 39.0306 23.5472 38.5147 23.6291 37.9873C23.711 37.4598 23.9279 36.9668 24.2797 36.5082C24.6316 36.0495 25.0517 35.7124 25.5399 35.4968C26.0282 35.2811 26.5434 35.2106 27.0855 35.2853C27.6277 35.3601 28.1426 35.5845 28.6303 35.9586C29.1179 36.3328 29.4658 36.7749 29.6739 37.285C29.882 37.7952 29.9435 38.322 29.8586 38.8655C29.7722 39.3987 29.5531 39.8947 29.2013 40.3533ZM28.3392 39.6919C28.5351 39.4364 28.6568 39.1516 28.7041 38.8375C28.7559 38.5176 28.7134 38.1944 28.5764 37.868C28.4395 37.5416 28.1969 37.2447 27.8486 36.9775C27.5002 36.7102 27.1558 36.5521 26.8154 36.503C26.4691 36.4494 26.1504 36.4862 25.8592 36.6133C25.568 36.7403 25.3245 36.9316 25.1285 37.187C24.9325 37.4425 24.8108 37.7273 24.7635 38.0414C24.7206 38.3497 24.7721 38.6613 24.9179 38.9761C25.0579 39.2864 25.3021 39.5752 25.6505 39.8425C26.1671 40.2389 26.6679 40.4156 27.1528 40.3726C27.6364 40.3194 28.0318 40.0925 28.3392 39.6919Z" fill="#701D1B"/>
<path d="M29.4242 30.5238C29.7556 30.1827 30.1222 29.9471 30.5239 29.8171C30.9308 29.6818 31.3472 29.6731 31.7732 29.7911C32.1993 29.9091 32.6091 30.1593 33.0028 30.5417L35.5615 33.0271L34.6973 33.9168L32.2724 31.5614C31.884 31.1841 31.4932 30.9931 31.0998 30.9885C30.7012 30.9788 30.3388 31.1419 30.0125 31.4778C29.6862 31.8137 29.5312 32.1834 29.5474 32.5867C29.5634 32.9798 29.7657 33.3649 30.1541 33.7422L32.579 36.0976L31.7072 36.9952L27.3691 32.7814L28.2409 31.8839L28.7369 32.3657C28.7012 32.0453 28.7431 31.7239 28.8626 31.4013C28.9872 31.0735 29.1744 30.781 29.4242 30.5238Z" fill="#701D1B"/>
<path d="M39.3492 22.2058L41.7156 31.5441L40.6794 32.3212L39.898 29.2304L34.4232 25.9003L35.5384 25.0639L39.6653 27.7311L38.3131 22.9829L39.3492 22.2058Z" fill="#701D1B"/>
<path d="M46.0555 25.2747C45.563 25.5632 45.0532 25.7135 44.526 25.7255C43.995 25.7312 43.4976 25.5986 43.0336 25.3277C42.5659 25.0504 42.1749 24.6434 41.8605 24.1068C41.5498 23.5764 41.3911 23.0376 41.3843 22.4904C41.3775 21.9432 41.5114 21.4407 41.786 20.983C42.0607 20.5253 42.4474 20.1504 42.9462 19.8582C43.4449 19.566 43.9611 19.4121 44.4946 19.3963C45.0282 19.3806 45.5319 19.5095 46.0059 19.7831C46.48 20.0566 46.8723 20.4586 47.183 20.9889C47.4936 21.5193 47.6492 22.0599 47.6497 22.6109C47.6502 23.1618 47.5086 23.673 47.2251 24.1444C46.9441 24.6058 46.5543 24.9825 46.0555 25.2747ZM45.5063 24.3371C45.7841 24.1744 46.0041 23.9565 46.1663 23.6833C46.3349 23.4065 46.4173 23.0911 46.4135 22.7372C46.4097 22.3832 46.2968 22.0169 46.0749 21.638C45.853 21.2592 45.5936 20.9829 45.2968 20.8091C44.9962 20.629 44.6871 20.5429 44.3695 20.5509C44.052 20.5588 43.7543 20.6442 43.4764 20.8069C43.1986 20.9696 42.9786 21.1876 42.8164 21.4607C42.6604 21.7301 42.5907 22.0381 42.6071 22.3847C42.6198 22.7249 42.7372 23.0844 42.9591 23.4632C43.2882 24.0252 43.6855 24.3776 44.1508 24.5205C44.6188 24.6535 45.0706 24.5923 45.5063 24.3371Z" fill="#701D1B"/>
<path d="M52.3279 15.3269L54.746 20.8702L53.5991 21.3705L53.3138 20.7166C53.2322 21.0236 53.0731 21.3085 52.8365 21.5714C52.6037 21.8247 52.323 22.023 51.9944 22.1663C51.5584 22.3565 51.1266 22.4371 50.6988 22.4081C50.2778 22.3763 49.8891 22.2265 49.5328 21.9588C49.1833 21.6882 48.8988 21.3014 48.6794 20.7983L47.2575 17.5388L48.3943 17.0429L49.7416 20.1314C49.9581 20.6277 50.2489 20.9559 50.6141 21.1159C50.9764 21.2692 51.3721 21.2523 51.8014 21.065C52.2306 20.8778 52.5122 20.5992 52.6463 20.2294C52.7841 19.85 52.7448 19.4121 52.5283 18.9158L51.181 15.8272L52.3279 15.3269Z" fill="#701D1B"/>
<path d="M55.998 14.9815C56.0758 14.6324 56.2309 14.3311 56.4634 14.0776C56.7005 13.8148 57.0171 13.6182 57.4134 13.488L57.8178 14.7184L57.5154 14.8178C57.0497 14.9709 56.734 15.2056 56.5684 15.5219C56.4098 15.8359 56.4264 16.2849 56.6183 16.8688L57.6123 19.8926L56.4236 20.2834L54.5351 14.5381L55.7238 14.1474L55.998 14.9815Z" fill="#701D1B"/>
<path d="M64.1015 13.0199L63.006 13.2506L64.0419 18.1697L62.8068 18.4298L61.7709 13.5107L61.0727 13.6578L60.8624 12.6589L61.5605 12.5119L61.4723 12.093C61.329 11.4128 61.404 10.8811 61.6971 10.4978C61.996 10.1058 62.532 9.82841 63.3053 9.66555L63.5202 10.6859C63.1479 10.7643 62.9016 10.8909 62.7814 11.0658C62.6597 11.2335 62.635 11.4892 62.7074 11.8329L62.7956 12.2518L63.8911 12.0211L64.1015 13.0199Z" fill="#701D1B"/>
<path d="M65.9369 10.8675C65.7128 10.9023 65.513 10.8555 65.3376 10.7273C65.1622 10.599 65.0571 10.4228 65.0223 10.1986C64.9875 9.97448 65.0342 9.7747 65.1625 9.59928C65.2907 9.42386 65.4669 9.31875 65.6911 9.28395C65.908 9.25028 66.1042 9.29757 66.2796 9.42584C66.455 9.55411 66.5601 9.73032 66.5949 9.95447C66.6297 10.1786 66.583 10.3784 66.4547 10.5538C66.3265 10.7292 66.1539 10.8338 65.9369 10.8675ZM66.6672 11.5649L67.595 17.541L66.3586 17.733L65.4308 11.7569L66.6672 11.5649Z" fill="#701D1B"/>
<path d="M69.5274 12.0976C69.6786 11.7735 69.8951 11.5127 70.1767 11.3152C70.4649 11.1098 70.8165 10.9861 71.2315 10.9444L71.3612 12.2331L71.0445 12.2649C70.5567 12.314 70.1978 12.4751 69.9679 12.7483C69.7452 13.0207 69.6647 13.4627 69.7262 14.0743L70.0447 17.2413L68.7998 17.3665L68.1945 11.3492L69.4395 11.2239L69.5274 12.0976Z" fill="#701D1B"/>
<path d="M74.8253 17.0479C74.3497 17.057 73.9201 16.9812 73.5365 16.8202C73.16 16.6519 72.8592 16.4235 72.634 16.1351C72.4088 15.8394 72.2853 15.5087 72.2636 15.1432L73.5585 15.1182C73.5854 15.3739 73.7103 15.5874 73.9331 15.7587C74.1632 15.9226 74.4465 16.0013 74.783 15.9948C75.1342 15.988 75.4036 15.9169 75.5913 15.7816C75.7861 15.6388 75.8815 15.4613 75.8774 15.2491C75.873 15.0223 75.76 14.8562 75.5384 14.7507C75.3241 14.645 74.9816 14.5309 74.5109 14.4082C74.0549 14.2926 73.6831 14.179 73.3955 14.0675C73.1079 13.956 72.8557 13.7815 72.6389 13.5442C72.4294 13.3067 72.3208 12.9905 72.3132 12.5954C72.307 12.2735 72.3965 11.979 72.5816 11.712C72.7666 11.4376 73.0332 11.2202 73.3814 11.0598C73.7369 10.8993 74.1451 10.8145 74.606 10.8056C75.2937 10.7924 75.8494 10.9573 76.2732 11.3004C76.7042 11.6361 76.9401 12.1036 76.9809 12.7029L75.7299 12.727C75.7027 12.4568 75.5888 12.2431 75.3882 12.0859C75.1875 11.9288 74.919 11.8535 74.5824 11.86C74.2532 11.8663 74.002 11.9334 73.8288 12.0612C73.6557 12.1889 73.571 12.3552 73.575 12.5601C73.5781 12.721 73.6392 12.8552 73.7584 12.9627C73.8776 13.0702 74.0219 13.1552 74.1915 13.2178C74.3609 13.2731 74.6111 13.3451 74.9421 13.4339C75.3834 13.5424 75.7442 13.6562 76.0246 13.7752C76.3122 13.8868 76.5606 14.0576 76.77 14.2878C76.9794 14.5179 77.0914 14.8268 77.1062 15.2144C77.1129 15.5583 77.0237 15.8674 76.8387 16.1417C76.6537 16.4161 76.3871 16.6335 76.0389 16.7939C75.698 16.9542 75.2935 17.0388 74.8253 17.0479Z" fill="#701D1B"/>
<path d="M80.1071 12.0316L79.9005 15.3729C79.8866 15.5993 79.9275 15.7668 80.0234 15.8753C80.1271 15.9771 80.3068 16.0358 80.5624 16.0516L81.3292 16.099L81.2649 17.1397L80.279 17.0788C79.7166 17.044 79.2938 16.8859 79.0107 16.6045C78.7275 16.3231 78.6042 15.8866 78.6407 15.295L78.8472 11.9538L78.1352 11.9097L78.1981 10.8909L78.9102 10.9349L79.003 9.4341L80.2628 9.51197L80.17 11.0128L81.638 11.1035L81.575 12.1224L80.1071 12.0316Z" fill="#701D1B"/>
<path d="M90.1901 16.3474C90.1202 16.7065 89.9647 17.0266 89.7236 17.3077C89.4897 17.5902 89.1794 17.8056 88.7927 17.9539C88.4132 18.1037 87.9858 18.1546 87.5105 18.1068L87.3406 18.9795L86.6404 18.8431L86.8103 17.9705C86.1477 17.7744 85.6431 17.4562 85.2964 17.016C84.9498 16.5758 84.8338 16.0612 84.9485 15.4722L86.2628 15.7281C86.2298 16.0125 86.2742 16.2634 86.3958 16.4809C86.5189 16.6912 86.7228 16.8502 87.0074 16.9578L87.4689 14.5876C87.0115 14.3718 86.6438 14.1735 86.3659 13.9926C86.0894 13.8046 85.87 13.5532 85.7077 13.2383C85.5525 12.9248 85.5211 12.531 85.6134 12.057C85.7295 11.4609 86.0336 11.0094 86.5256 10.7027C87.0191 10.3888 87.6098 10.2652 88.2975 10.332L88.4674 9.45936L89.1677 9.5957L88.9978 10.4684C89.6186 10.6489 90.0858 10.9486 90.3994 11.3674C90.7215 11.7805 90.8497 12.29 90.7839 12.896L89.4695 12.6401C89.4913 12.4132 89.4436 12.1989 89.3263 11.9972C89.2104 11.7882 89.0331 11.627 88.7943 11.5134L88.3412 13.8405C88.8001 14.0491 89.1677 14.2474 89.4442 14.4354C89.7221 14.6163 89.9386 14.8634 90.0938 15.1769C90.2503 15.4832 90.2824 15.8734 90.1901 16.3474ZM86.8757 12.2357C86.8184 12.5302 86.8598 12.7768 87 12.9755C87.1474 13.1757 87.373 13.3575 87.6766 13.521L88.1003 11.3447C87.7845 11.3205 87.515 11.3836 87.2919 11.534C87.076 11.6858 86.9373 11.9197 86.8757 12.2357ZM87.7077 17.0941C88.0335 17.1054 88.3058 17.0279 88.5245 16.8618C88.7446 16.6884 88.8827 16.4581 88.9386 16.1708C88.9945 15.8835 88.9481 15.6434 88.7993 15.4504C88.6591 15.2517 88.4372 15.0706 88.1335 14.9071L87.7077 17.0941Z" fill="#701D1B"/>
<path d="M92.1338 17.3378C92.9853 16.9673 93.6609 16.6569 94.1606 16.4066C94.6695 16.1515 95.1163 15.8617 95.5012 15.5372C95.8861 15.2127 96.1417 14.8479 96.2682 14.4428C96.3989 14.0237 96.4001 13.6638 96.2717 13.3631C96.1502 13.0645 95.8764 12.8488 95.4503 12.7158C95.0382 12.5872 94.6755 12.6197 94.3621 12.8132C94.058 13.0019 93.8302 13.314 93.6789 13.7497L92.5264 13.3901C92.7959 12.6003 93.223 12.0667 93.8078 11.7893C94.4018 11.5071 95.0515 11.4761 95.757 11.6962C96.5184 11.9338 97.0467 12.3287 97.342 12.8807C97.6443 13.435 97.6864 14.0614 97.4685 14.7599C97.3115 15.2628 97.0308 15.7079 96.6263 16.0953C96.231 16.4778 95.7974 16.7986 95.3257 17.0576C94.8631 17.3119 94.2841 17.595 93.5889 17.9069L92.9866 18.1789L96.308 19.2154L95.9974 20.2107L90.9053 18.6216L91.1767 17.752L92.1338 17.3378Z" fill="#701D1B"/>
<path d="M98.4883 16.8345C98.9988 15.6761 99.5913 14.8577 100.266 14.3794C100.95 13.8973 101.771 13.8672 102.729 14.2891C103.686 14.7111 104.214 15.3357 104.314 16.1631C104.422 16.9867 104.222 17.9777 103.711 19.1361C103.195 20.3078 102.593 21.1381 101.906 21.627C101.228 22.112 100.411 22.1436 99.4533 21.7216C98.4957 21.2997 97.964 20.6735 97.8581 19.8432C97.7619 19.0092 97.972 18.0063 98.4883 16.8345ZM102.586 18.6403C102.825 18.098 102.991 17.6231 103.082 17.2156C103.18 16.8112 103.174 16.4445 103.063 16.1157C102.955 15.7803 102.69 15.5196 102.268 15.3337C101.846 15.1478 101.475 15.1282 101.155 15.2748C100.837 15.4147 100.559 15.656 100.32 15.9985C100.088 16.3439 99.8523 16.7879 99.6133 17.3302C99.3654 17.8927 99.1909 18.3795 99.0896 18.7907C98.9884 19.2018 98.9933 19.5718 99.1043 19.9006C99.222 20.2323 99.4917 20.4912 99.9136 20.677C100.335 20.8629 100.705 20.8859 101.023 20.746C101.347 20.609 101.627 20.3644 101.862 20.0123C102.097 19.6601 102.338 19.2028 102.586 18.6403Z" fill="#701D1B"/>
<path d="M105.428 23.0144L102.817 25.0448L102.103 24.6578L104.232 22.3659L105.428 23.0144Z" fill="#701D1B"/>
<path d="M107.733 21.241C108.425 20.1805 109.142 19.4689 109.885 19.106C110.638 18.741 111.453 18.8442 112.33 19.4156C113.206 19.987 113.627 20.6889 113.591 21.5214C113.565 22.3518 113.206 23.2972 112.515 24.3577C111.816 25.4304 111.087 26.1524 110.33 26.5235C109.583 26.8925 108.771 26.7913 107.895 26.2199C107.018 25.6485 106.595 24.9445 106.625 24.1081C106.665 23.2694 107.034 22.3138 107.733 21.241ZM111.485 23.6864C111.809 23.1899 112.049 22.748 112.205 22.3608C112.367 21.9775 112.421 21.6147 112.364 21.2723C112.312 20.9238 112.093 20.6236 111.706 20.3719C111.32 20.1202 110.957 20.0407 110.617 20.1335C110.281 20.2202 109.968 20.4132 109.676 20.7125C109.391 21.0158 109.087 21.4158 108.763 21.9123C108.428 22.4272 108.177 22.8794 108.01 23.2687C107.844 23.6581 107.789 24.024 107.845 24.3664C107.907 24.7128 108.132 25.0119 108.518 25.2636C108.904 25.5153 109.265 25.5978 109.601 25.5112C109.943 25.4285 110.259 25.2324 110.548 24.923C110.837 24.6135 111.149 24.2013 111.485 23.6864Z" fill="#701D1B"/>
<path d="M114.166 25.5306C114.979 24.5609 115.777 23.9406 116.558 23.6697C117.35 23.3979 118.146 23.5983 118.948 24.2709C119.75 24.9435 120.082 25.6909 119.947 26.513C119.821 27.3342 119.351 28.2297 118.538 29.1994C117.715 30.1803 116.905 30.8095 116.108 31.0869C115.322 31.3634 114.529 31.1654 113.727 30.4928C112.926 29.8201 112.59 29.0704 112.72 28.2436C112.861 27.4159 113.343 26.5116 114.166 25.5306ZM117.596 28.4092C117.977 27.9552 118.268 27.5454 118.47 27.1797C118.677 26.8188 118.774 26.465 118.759 26.1183C118.749 25.766 118.567 25.4417 118.214 25.1453C117.861 24.849 117.51 24.7265 117.162 24.7778C116.818 24.8234 116.483 24.9774 116.158 25.2395C115.839 25.5064 115.488 25.8668 115.107 26.3208C114.712 26.7917 114.409 27.2104 114.197 27.5769C113.985 27.9434 113.886 28.3001 113.901 28.6467C113.921 28.9981 114.108 29.322 114.461 29.6183C114.814 29.9147 115.163 30.04 115.507 29.9943C115.856 29.9534 116.193 29.7966 116.517 29.5242C116.841 29.2517 117.201 28.8801 117.596 28.4092Z" fill="#701D1B"/>
<path d="M119.724 30.2659C120.645 29.3972 121.509 28.8736 122.317 28.6952C123.135 28.5171 123.902 28.8086 124.621 29.5697C125.339 30.3308 125.582 31.1117 125.352 31.9125C125.132 32.7136 124.562 33.5485 123.641 34.4173C122.71 35.296 121.832 35.827 121.009 36.0101C120.196 36.1935 119.431 35.9047 118.713 35.1436C117.995 34.3825 117.748 33.5989 117.974 32.7928C118.209 31.987 118.793 31.1447 119.724 30.2659ZM122.797 33.5231C123.229 33.1164 123.565 32.7431 123.808 32.4034C124.056 32.069 124.193 31.7287 124.218 31.3826C124.249 31.0316 124.107 30.6884 123.79 30.3531C123.474 30.0178 123.14 29.8553 122.787 29.8658C122.44 29.8712 122.09 29.9853 121.737 30.2079C121.389 30.4359 120.999 30.7533 120.568 31.16C120.121 31.5818 119.771 31.9625 119.518 32.3019C119.264 32.6414 119.125 32.9841 119.099 33.3302C119.079 33.6816 119.227 34.0249 119.543 34.3602C119.859 34.6955 120.191 34.8605 120.538 34.855C120.89 34.8549 121.243 34.7383 121.596 34.5053C121.95 34.2723 122.35 33.9449 122.797 33.5231Z" fill="#701D1B"/>
<path fill-rule="evenodd" clip-rule="evenodd" d="M137.463 68.6632C136.834 56.4748 133.655 48.1157 128.858 39.6686L129.727 39.1747C134.586 47.7304 137.823 56.2396 138.462 68.6117L137.463 68.6632Z" fill="#701D1B"/>
</svg>
