<svg width="140" height="20" viewBox="0 0 140 20" fill="none" xmlns="http://www.w3.org/2000/svg">
<path d="M1.6 19.481C1.58274 19.6252 1.8876 19.6915 1.971 19.7174C2.36014 19.7958 2.75947 19.8094 3.15302 19.7578C3.95023 19.6901 4.7337 19.5085 5.47968 19.2186C5.68388 19.1379 5.8852 19.0485 6.08076 18.9504C7.15274 18.4292 8.05745 17.617 8.69214 16.6061C9.19544 15.7843 9.48016 14.8501 9.8943 13.9793C10.3084 13.1084 10.9095 12.2665 11.7924 11.883C11.9449 11.8166 12.1318 11.7215 12.1174 11.5571C12.103 11.3928 11.8988 11.3322 11.7349 11.312C10.6449 11.1484 9.53558 11.164 8.45056 11.3582C7.36208 11.5572 6.36943 12.1106 5.62636 12.9325C5.09252 13.6287 4.69355 14.4189 4.45009 15.2624C4.20955 16.1036 3.89083 16.9204 3.49814 17.7019C3.38653 17.9036 3.25962 18.0964 3.11851 18.2786C2.97847 18.4612 2.82256 18.631 2.65261 18.7861C2.48521 18.9409 2.30094 19.0763 2.1033 19.1898C2.02277 19.2359 1.93649 19.2763 1.85309 19.3166L1.72367 19.3772C1.68341 19.393 1.64849 19.42 1.62301 19.455C1.6214 19.4646 1.6214 19.4743 1.62301 19.4839" fill="white"/>
<path d="M20.15 16.4764L13.2534 0L11.4962 0.790081L9.07752 1.79066L9.3076 2.2549C9.3076 2.2549 10.5932 1.6782 11.2201 2.71915L11.5336 3.39965L15.1171 12.0156L15.3011 12.4625H15.3184L16.9864 16.4764C17.274 17.1569 17.5099 17.6874 17.645 18.0969C17.8722 18.7976 17.8147 19.1551 17.2366 19.3483V19.7405H22.307V19.3483C21.6656 19.0427 20.9438 18.316 20.1644 16.4648" fill="white"/>
<path d="M32.233 16.8027V0.200012H28V0.593866C28.957 0.90084 29.158 1.75226 29.158 3.75628V16.2466C29.158 18.2738 28.957 19.1021 28 19.4091V19.8H33.4V19.4091C32.539 19.1195 32.29 18.4186 32.248 16.8027" fill="white"/>
<path d="M36.552 8.17004C40.0901 7.55473 41.2985 5.81328 41.2985 3.90639C41.2985 1.8747 39.9274 0.501863 36.3022 0.243548H36.1918C35.82 0.217427 35.4279 0.200012 35.0067 0.200012H34.6V0.417693C34.6 0.417693 34.8905 0.435108 35.0938 0.464132C35.3157 0.498988 35.535 0.548436 35.7503 0.612155C35.988 0.681588 36.2127 0.789437 36.4155 0.93142C36.4951 0.986262 36.5717 1.04536 36.645 1.10847C36.9092 1.3443 37.1329 1.62177 37.3073 1.92985C37.4891 2.24641 37.6325 2.58354 37.7343 2.93409C37.8364 3.28088 37.9055 3.63656 37.9405 3.99637C37.9604 4.18048 37.9701 4.36555 37.9696 4.55073C37.9696 5.88584 37.3886 7.041 36.3865 7.6418L36.3545 7.66212C35.8072 7.95871 35.2203 8.17568 34.6116 8.30645V8.55026C38.4954 8.70989 40.2557 11.0376 40.2557 14.2883C40.2555 14.7763 40.2029 15.2628 40.0988 15.7395C39.9969 16.1349 39.828 16.5099 39.5992 16.8483C39.3721 17.1973 39.0918 17.5087 38.7684 17.7712C38.1892 18.2873 37.547 18.7281 36.857 19.0831C36.3242 19.3136 35.7605 19.4652 35.1839 19.533V19.8H35.3901C41.3856 19.4314 43.6514 16.3345 43.5991 13.2493C43.5701 10.4426 41.2114 8.31516 36.5782 8.17004" fill="white"/>
<path d="M57.8 19.6062C54.6647 18.2526 52.5477 14.1074 52.5477 9.74621C52.5477 5.38506 54.986 1.47608 57.7943 0.201284V0C55.4538 0.378179 53.3226 1.59294 51.784 3.42594C50.2453 5.25893 49.4 7.58995 49.4 10C49.4 12.41 50.2453 14.7411 51.784 16.5741C53.3226 18.4071 55.4538 19.6218 57.7943 20L57.8 19.6062Z" fill="white"/>
<path d="M61 19.6062C64.0627 18.2468 66.1223 14.1074 66.1223 9.74621C66.1223 5.38506 63.7433 1.47608 61 0.201284V0C63.2863 0.37818 65.3681 1.59294 66.8712 3.42594C68.3743 5.25894 69.2 7.58995 69.2 10C69.2 12.41 68.3743 14.7411 66.8712 16.5741C65.3681 18.4071 63.2863 19.6218 61 20V19.6062Z" fill="white"/>
<path fill-rule="evenodd" clip-rule="evenodd" d="M79.2465 16.1775C79.2465 18.196 79.6462 19.0207 80.5637 19.3263V19.7156H79.258L79.258 19.7185H75.2V19.3263C76.1174 19.0207 76.3101 18.1931 76.3101 16.1746V3.74096C76.3101 1.74557 76.1174 0.897821 75.2 0.592169V0.200012H79.2465L79.2465 16.1775Z" fill="white"/>
<path d="M89.508 10.9353C89.508 16.9013 87.0317 19.534 82.5567 19.534H82.3899V19.7185H82.7523C88.8724 19.7185 92.8182 15.6182 92.7923 9.56856C92.7636 5.51434 90.2039 0.315384 82.3899 0.205811V0.358636C87.2043 1.25541 89.508 5.88343 89.508 10.9353Z" fill="white"/>
<path d="M107 19.6062C103.865 18.2526 101.748 14.1074 101.748 9.74621C101.748 5.38506 104.186 1.47608 106.994 0.201284V0C104.654 0.378179 102.523 1.59294 100.984 3.42594C99.4453 5.25893 98.6 7.58995 98.6 10C98.6 12.41 99.4453 14.7411 100.984 16.5741C102.523 18.4071 104.654 19.6218 106.994 20L107 19.6062Z" fill="white"/>
<path d="M110.2 19.6062C113.263 18.2468 115.322 14.1074 115.322 9.74621C115.322 5.38506 112.943 1.47608 110.2 0.201284V0C112.486 0.37818 114.568 1.59294 116.071 3.42594C117.574 5.25894 118.4 7.58995 118.4 10C118.4 12.41 117.574 14.7411 116.071 16.5741C114.568 18.4071 112.486 19.6218 110.2 20V19.6062Z" fill="white"/>
<path d="M133.027 0.63149C133.753 0.955214 134.431 1.37937 135.04 1.89158C135.328 2.12391 135.598 2.3774 135.848 2.64994C136.135 2.97088 136.392 3.31738 136.616 3.68512C136.84 4.08483 137.043 4.49579 137.226 4.91638L137.53 4.80392L137.421 1.17936C135.873 0.441003 134.183 0.047522 132.469 0.0259533C132.097 0.019963 131.725 0.0411649 131.356 0.0893905V0.175896L131.75 0.233566C132.19 0.31699 132.619 0.450494 133.029 0.63149" fill="white"/>
<path d="M132.08 8.36216C129.857 7.46827 127.047 6.46481 127.047 3.985C127.026 3.13305 127.336 2.30607 127.91 1.67819L127.953 1.63494C128.022 1.56574 128.094 1.49653 128.169 1.43021C128.244 1.36389 128.296 1.30334 128.362 1.23125C128.604 1.00331 128.876 0.809315 129.17 0.654548L129.144 0.593994C128.73 0.656083 128.324 0.764406 127.933 0.916947L127.778 0.977501L127.516 1.09572H127.536C126.649 1.54979 125.93 2.27753 125.486 3.17185C125.115 3.9277 124.927 4.7604 124.936 5.60265C124.936 8.84659 127.329 9.80391 130.205 10.9948C132.428 11.8858 136.018 13.169 136.018 15.8968C136.035 16.7519 135.734 17.583 135.172 18.2266C134.925 18.4841 134.649 18.7115 134.35 18.9043L134.433 18.9821C134.482 19.0283 134.836 18.9273 134.91 18.9129C135.089 18.8744 135.265 18.8243 135.437 18.763C135.779 18.6389 136.101 18.466 136.394 18.2497C137.207 17.5906 137.791 16.6917 138.065 15.6805L138.091 15.5969C138.228 15.0952 138.297 14.5772 138.295 14.0571C138.295 10.7122 134.93 9.45789 132.095 8.37081" fill="white"/>
<path d="M130.381 19.3339C129.955 19.1349 129.552 18.9331 129.23 18.7572C128.966 18.6335 128.709 18.4929 128.462 18.3362L128.37 18.2843C126.794 17.2664 125.65 15.6517 124.962 13.7803L124.6 13.8379L124.712 18.019C126.13 19.0802 128.716 20 131.58 20C131.712 20 131.845 20 131.974 19.9827V19.8212C131.974 19.8212 131.747 19.8587 130.381 19.3339" fill="white"/>
</svg>
